verilog/router/router.vcd
$date
	Sun May 30 14:51:02 2021
$end
$version
	Icarus Verilog
$end
$timescale
	1ns
$end
$scope module dut $end
$var wire 16 ! dout [15:0] $end
$var wire 16 " frameo_n [15:0] $end
$var wire 16 # valido_n [15:0] $end
$var reg 1 $ clock $end
$var reg 16 % din [15:0] $end
$var reg 16 & frame_n [15:0] $end
$var reg 1 ' reset_n $end
$var reg 16 ( valid_n [15:0] $end
$scope module u_router $end
$var wire 1 ) clock $end
$var wire 16 * din [15:0] $end
$var wire 16 + frame_n [15:0] $end
$var wire 1 , reset_n $end
$var wire 16 - valid_n [15:0] $end
$var reg 4 . addr0 [3:0] $end
$var reg 4 / addr1 [3:0] $end
$var reg 4 0 addr10 [3:0] $end
$var reg 4 1 addr11 [3:0] $end
$var reg 4 2 addr12 [3:0] $end
$var reg 4 3 addr13 [3:0] $end
$var reg 4 4 addr14 [3:0] $end
$var reg 4 5 addr15 [3:0] $end
$var reg 4 6 addr2 [3:0] $end
$var reg 4 7 addr3 [3:0] $end
$var reg 4 8 addr4 [3:0] $end
$var reg 4 9 addr5 [3:0] $end
$var reg 4 : addr6 [3:0] $end
$var reg 4 ; addr7 [3:0] $end
$var reg 4 < addr8 [3:0] $end
$var reg 4 = addr9 [3:0] $end
$var reg 3 > addr_counter0 [2:0] $end
$var reg 3 ? addr_counter1 [2:0] $end
$var reg 3 @ addr_counter10 [2:0] $end
$var reg 3 A addr_counter11 [2:0] $end
$var reg 3 B addr_counter12 [2:0] $end
$var reg 3 C addr_counter13 [2:0] $end
$var reg 3 D addr_counter14 [2:0] $end
$var reg 3 E addr_counter15 [2:0] $end
$var reg 3 F addr_counter2 [2:0] $end
$var reg 3 G addr_counter3 [2:0] $end
$var reg 3 H addr_counter4 [2:0] $end
$var reg 3 I addr_counter5 [2:0] $end
$var reg 3 J addr_counter6 [2:0] $end
$var reg 3 K addr_counter7 [2:0] $end
$var reg 3 L addr_counter8 [2:0] $end
$var reg 3 M addr_counter9 [2:0] $end
$var reg 16 N dout [15:0] $end
$var reg 16 O frameo_n [15:0] $end
$var reg 16 P valido_n [15:0] $end
$upscope $end
$upscope $end
$enddefinitions $end
#0
$dumpvars
b1111111111111111 P
b1111111111111111 O
bx N
bx M
bx L
bx K
bx J
bx I
bx H
bx G
bx F
bx E
bx D
bx C
bx B
bx A
bx @
bx ?
bx >
bx =
bx <
bx ;
bx :
bx 9
bx 8
bx 7
bx 6
bx 5
bx 4
bx 3
bx 2
bx 1
bx 0
bx /
bx .
b1111111111111111 -
1,
b1111111111111111 +
b0 *
0)
b1111111111111111 (
1'
b1111111111111111 &
b0 %
0$
b1111111111111111 #
b1111111111111111 "
bx !
$end
#5
b0 .
b0 >
b0 /
b0 ?
b0 6
b0 F
b0 7
b0 G
b0 8
b0 H
b0 9
b0 I
b0 :
b0 J
b0 ;
b0 K
b0 <
b0 L
b0 =
b0 M
b0 0
b0 @
b0 1
b0 A
b0 2
b0 B
b0 3
b0 C
b0 4
b0 D
b0 5
b0 E
1$
1)
#10
0$
0)
#15
b0 N
b0 !
1$
1)
0'
0,
#20
0$
0)
#25
b0 N
1$
1)
#27
1'
1,
#30
0$
0)
#35
1$
1)
#40
0$
0)
#45
1$
1)
#50
0$
0)
#55
1$
1)
#60
0$
0)
#65
1$
1)
#70
0$
0)
#75
1$
1)
#80
0$
0)
#85
1$
1)
#90
0$
0)
#95
1$
1)
#100
0$
0)
#105
1$
1)
#110
0$
0)
#115
1$
1)
#120
0$
0)
#125
1$
1)
#130
0$
0)
#135
1$
1)
#140
0$
0)
#145
1$
1)
#150
0$
0)
#155
1$
1)
#160
0$
0)
#165
1$
1)
#170
0$
0)
#175
1$
1)
#177
b0 P
b0 #
b0 O
b0 "
b11111111 %
b11111111 *
b0 (
b0 -
b0 &
b0 +
#180
0$
0)
#185
b1 .
b1 >
b1 /
b1 ?
b1 6
b1 F
b1 7
b1 G
b1 8
b1 H
b1 9
b1 I
b1 :
b1 J
b1 ;
b1 K
b0 <
b1 L
b0 =
b1 M
b0 0
b1 @
b0 1
b1 A
b0 2
b1 B
b0 3
b1 C
b0 4
b1 D
b0 5
b1 E
1$
1)
#187
b111100001111 %
b111100001111 *
#190
0$
0)
#195
b0 5
b10 E
b0 4
b10 D
b0 3
b10 C
b0 2
b10 B
b1 1
b10 A
b1 0
b10 @
b1 =
b10 M
b1 <
b10 L
b10 ;
b10 K
b10 :
b10 J
b10 9
b10 I
b10 8
b10 H
b11 7
b10 G
b11 6
b10 F
b11 /
b10 ?
b11 .
b10 >
1$
1)
#197
b11001100110011 %
b11001100110011 *
#200
0$
0)
#205
b111 .
b11 >
b111 /
b11 ?
b110 6
b11 F
b110 7
b11 G
b101 8
b11 H
b101 9
b11 I
b100 :
b11 J
b100 ;
b11 K
b11 <
b11 L
b11 =
b11 M
b10 0
b11 @
b10 1
b11 A
b1 2
b11 B
b1 3
b11 C
b0 4
b11 D
b0 5
b11 E
1$
1)
#207
b101010101010101 %
b101010101010101 *
#210
0$
0)
#215
b0 5
b100 E
b1 4
b100 D
b10 3
b100 C
b11 2
b100 B
b100 1
b100 A
b101 0
b100 @
b110 =
b100 M
b111 <
b100 L
b1000 ;
b100 K
b1001 :
b100 J
b1010 9
b100 I
b1011 8
b100 H
b1100 7
b100 G
b1101 6
b100 F
b1110 /
b100 ?
b1111 .
b100 >
1$
1)
#217
b1001001010000111 %
b1001001010000111 *
#220
0$
0)
#225
b1110000101001001 N
b1110000101001001 !
1$
1)
#230
0$
0)
#235
b1110000101001001 N
1$
1)
#237
b1111111111111111 P
b1111111111111111 #
b1111111111111111 (
b1111111111111111 -
#240
0$
0)
#245
1$
1)
#247
b111100000101001 %
b111100000101001 *
#250
0$
0)
#255
1$
1)
#257
b0 P
b0 #
b0 (
b0 -
#260
0$
0)
#265
b1001010000011110 N
b1001010000011110 !
1$
1)
#267
b1111111111111111 %
b1111111111111111 *
#270
0$
0)
#275
b1111111111111111 !
b1111111111111111 N
1$
1)
#277
b1111111111111111 O
b1111111111111111 "
b1111111111111111 &
b1111111111111111 +
#280
0$
0)
#285
b0 .
b0 >
b0 /
b0 ?
b0 6
b0 F
b0 7
b0 G
b0 8
b0 H
b0 9
b0 I
b0 :
b0 J
b0 ;
b0 K
b0 <
b0 L
b0 =
b0 M
b0 0
b0 @
b0 1
b0 A
b0 2
b0 B
b0 3
b0 C
b0 4
b0 D
b0 E
1$
1)
#287
b0 O
b0 "
b0 &
b0 +
#290
0$
0)
#295
b1 5
b1 E
b1 4
b1 D
b1 3
b1 C
b1 2
b1 B
b1 1
b1 A
b1 0
b1 @
b1 =
b1 M
b1 <
b1 L
b1 ;
b1 K
b1 :
b1 J
b1 9
b1 I
b1 8
b1 H
b1 7
b1 G
b1 6
b1 F
b1 /
b1 ?
b1 .
b1 >
1$
1)
#297
b101010101010101 %
b101010101010101 *
#300
0$
0)
#305
b11 .
b10 >
b10 /
b10 ?
b11 6
b10 F
b10 7
b10 G
b11 8
b10 H
b10 9
b10 I
b11 :
b10 J
b10 ;
b10 K
b11 <
b10 L
b10 =
b10 M
b11 0
b10 @
b10 1
b10 A
b11 2
b10 B
b10 3
b10 C
b11 4
b10 D
b10 5
b10 E
1$
1)
#307
b11001100110011 %
b11001100110011 *
#310
0$
0)
#315
b100 5
b11 E
b110 4
b11 D
b101 3
b11 C
b111 2
b11 B
b100 1
b11 A
b110 0
b11 @
b101 =
b11 M
b111 <
b11 L
b100 ;
b11 K
b110 :
b11 J
b101 9
b11 I
b111 8
b11 H
b100 7
b11 G
b110 6
b11 F
b101 /
b11 ?
b111 .
b11 >
1$
1)
#317
b111100001111 %
b111100001111 *
#320
0$
0)
#325
b1111 .
b100 >
b1011 /
b100 ?
b1101 6
b100 F
b1001 7
b100 G
b1110 8
b100 H
b1010 9
b100 I
b1100 :
b100 J
b1000 ;
b100 K
b1111 <
b100 L
b1011 =
b100 M
b1101 0
b100 @
b1001 1
b100 A
b1110 2
b100 B
b1010 3
b100 C
b1100 4
b100 D
b1000 5
b100 E
1$
1)
#327
b11111111 %
b11111111 *
#330
0$
0)
#335
b11111111 !
b11111111 N
1$
1)
#337
b1001001010000111 %
b1001001010000111 *
#340
0$
0)
#345
b1010100111111111 N
b1010100111111111 !
1$
1)
#350
0$
0)
#355
b100100111111111 !
b100100111111111 N
1$
1)
#360
0$
0)
#365
b1010100111111111 !
b1010100111111111 N
1$
1)
#370
0$
0)
#375
b100100111111111 !
b100100111111111 N
1$
1)
#380
0$
0)
#385
b1010100111111111 !
b1010100111111111 N
1$
1)
#390
0$
0)
#395
b100100111111111 !
b100100111111111 N
1$
1)
#400
0$
0)
#405
b1010100111111111 !
b1010100111111111 N
1$
1)
#410
0$
0)
#415
b100100111111111 !
b100100111111111 N
1$
1)
#420
0$
0)
#425
b1010100111111111 !
b1010100111111111 N
1$
1)
#430
0$
0)
#435
b100100111111111 !
b100100111111111 N
1$
1)
